emberjs/ember.js
cjthompson/ember.js
63280057711ddb100f08196ba27478344a2fbcbc
18673,var ele = this.$();
18674,var pos = ele.prop('selectionStart');
18675,ele.val(get(this,'value'));
18676,ele.prop({ selectionStart: pos, selectionEnd: pos });
