marlinfirmware/marlin
mattsch/Marlin
fb34265d75cd1f5a3f4768779947f87c5b1ef270
Marlin/ultralcd.cpp
377,#if TEMP_SENSOR_0 != 0
785,#if TEMP_SENSOR_1 != 0
798,#if defined AUTOTEMP && (TEMP_SENSOR_0 != 0)
823,#if TEMP_SENSOR_0 != 0
840,#if TEMP_SENSOR_0 != 0
